{
"variables": {
  "api_token": ""
},

"builders": [{
  "type": "digitalocean",
  "communicator": "ssh",
  "api_token": "{{user `api_token`}}",
  "image": "ubuntu-14-04-x64",
  "droplet_name": "pckr-ub1404-tmplt1",
  "region": "FRA1",
  "size": "512mb"
 }],

"provisioners": [{
  "type": "file",
  "source": "files/10periodic",
  "destination": "/tmp/10periodic"
  },{
  "type": "file",
  "source": "files/20auto-upgrades",
  "destination": "/tmp/20auto-upgrades"
  },{
  "type": "shell",
  "scripts": [
    "scripts/base.sh",
    "scripts/security.sh",
    "scripts/cleanup.sh"
   ]
  } 
 ]
}

     
